tb_files/AllModulesV1_tb.vcd
$date
	Wed Nov 20 15:31:38 2024
$end
$version
	Icarus Verilog
$end
$timescale
	1ps
$end
$scope module AllModulesV1_tb $end
$var wire 6 ! PM_Ins [5:0] $end
$var wire 5 " PC_Addr [4:0] $end
$var wire 1 # ID_nResetCY $end
$var wire 1 $ ID_RegCE $end
$var wire 4 % ID_RegAddr [3:0] $end
$var wire 1 & ID_CY_CE $end
$var wire 1 ' ID_A_CE $end
$var wire 3 ( ID_ALUCode [2:0] $end
$var reg 1 ) clk_tb $end
$var reg 1 * nReset_tb $end
$scope module ID $end
$var wire 2 + RNum [1:0] $end
$var wire 4 , OpCode [3:0] $end
$var wire 6 - Ins [5:0] $end
$var wire 3 . ALUCodeWire [2:0] $end
$var reg 3 / ALUCode [2:0] $end
$var reg 1 ' A_CE $end
$var reg 1 & CY_CE $end
$var reg 4 0 RegAddr [3:0] $end
$var reg 1 $ Reg_CE $end
$var reg 1 # nResetCY $end
$upscope $end
$scope module PC $end
$var wire 1 ) clk $end
$var wire 1 * nReset $end
$var reg 5 1 addr [4:0] $end
$upscope $end
$scope module PM $end
$var wire 6 2 InsOut [5:0] $end
$var wire 5 3 addr [4:0] $end
$var integer 32 4 i [31:0] $end
$upscope $end
$scope module RF_ALU_CY_A_module1 $end
$var wire 3 5 ALUCode [2:0] $end
$var wire 1 ' A_CE $end
$var wire 1 & CY_CE $end
$var wire 4 6 RegAddr [3:0] $end
$var wire 1 $ RegCE $end
$var wire 1 ) clk $end
$var wire 1 * nReset $end
$var wire 1 # nResetCY $end
$var wire 1 7 RegCY_Q $end
$var wire 8 8 RF_2_ALU [7:0] $end
$var wire 8 9 A_out [7:0] $end
$var wire 1 : ALU_Co $end
$var wire 8 ; ALU_2_A [7:0] $end
$scope module A $end
$var wire 1 ' CE $end
$var wire 1 ) clk $end
$var wire 1 * nReset $end
$var wire 8 < D [7:0] $end
$var reg 8 = Q [7:0] $end
$upscope $end
$scope module ALU_1 $end
$var wire 8 > A [7:0] $end
$var wire 3 ? ALUCode [2:0] $end
$var wire 8 @ R [7:0] $end
$var wire 1 7 Ci $end
$var reg 1 : Co $end
$var reg 8 A out [7:0] $end
$upscope $end
$scope module RF $end
$var wire 8 B A [7:0] $end
$var wire 1 $ RegCE $end
$var wire 4 C RegNum [3:0] $end
$var wire 1 ) clk $end
$var wire 1 * nReset $end
$var reg 8 D out [7:0] $end
$scope module R0 $end
$var wire 1 E CE $end
$var wire 8 F D [7:0] $end
$var wire 1 ) clk $end
$var wire 1 * nReset $end
$var reg 8 G Q [7:0] $end
$upscope $end
$scope module R1 $end
$var wire 1 H CE $end
$var wire 8 I D [7:0] $end
$var wire 1 ) clk $end
$var wire 1 * nReset $end
$var reg 8 J Q [7:0] $end
$upscope $end
$scope module R2 $end
$var wire 1 K CE $end
$var wire 8 L D [7:0] $end
$var wire 1 ) clk $end
$var wire 1 * nReset $end
$var reg 8 M Q [7:0] $end
$upscope $end
$scope module R3 $end
$var wire 1 N CE $end
$var wire 8 O D [7:0] $end
$var wire 1 ) clk $end
$var wire 1 * nReset $end
$var reg 8 P Q [7:0] $end
$upscope $end
$upscope $end
$scope module RegCY $end
$var wire 1 & CE $end
$var wire 1 : D $end
$var wire 1 ) clk $end
$var wire 1 Q nReset $end
$var reg 1 7 Q $end
$upscope $end
$upscope $end
$upscope $end
$enddefinitions $end
#0
$dumpvars
0Q
bx P
bx O
0N
bx M
bx L
0K
bx J
bx I
0H
bx G
bx F
0E
bx D
b10 C
bx B
bx A
bx @
b0 ?
bx >
bx =
bx <
bx ;
x:
bx 9
bx 8
x7
b10 6
b0 5
b11111 4
b0 3
b1 2
b0 1
b10 0
b0 /
b0 .
b1 -
b0 ,
b1 +
0*
0)
b0 (
1'
1&
b10 %
0$
1#
b0 "
b1 !
$end
#5000
0:
b1 ;
b1 <
b1 A
b1 8
b1 @
b1 D
b0 G
b1 J
b10 M
b100 P
07
b0 9
b0 =
b0 >
b0 B
b0 F
b0 I
b0 L
b0 O
1)
#6000
1Q
1*
#10000
0)
#15000
b1 9
b1 =
b1 >
b1 B
b1 F
b1 I
b1 L
b1 O
0:
b0 ;
b0 <
b0 A
b1 (
b1 /
b1 5
b1 ?
b1 .
b1 ,
b101 !
b101 -
b101 2
b1 "
b1 1
b1 3
1)
#20000
0)
#25000
1:
b11111111 ;
b11111111 <
b11111111 A
b0 9
b0 =
b0 >
b0 B
b0 F
b0 I
b0 L
b0 O
b10 "
b10 1
b10 3
1)
#30000
0)
#35000
0:
b11111101 ;
b11111101 <
b11111101 A
b11111111 9
b11111111 =
b11111111 >
b11111111 B
b11111111 F
b11111111 I
b11111111 L
b11111111 O
17
b11 "
b11 1
b11 3
1)
#40000
0)
#45000
07
b11111101 9
b11111101 =
b11111101 >
b11111101 B
b11111101 F
b11111101 I
b11111101 L
b11111101 O
0:
b11111111 ;
b11111111 <
b11111111 A
b10 8
b10 @
b10 D
b0 (
b0 /
b0 5
b0 ?
b100 %
b100 0
b100 6
b100 C
b0 .
b10 +
b0 ,
b10 !
b10 -
b10 2
b100 "
b100 1
b100 3
1)
#50000
0)
#55000
1:
b1 ;
b1 <
b1 A
b11111111 9
b11111111 =
b11111111 >
b11111111 B
b11111111 F
b11111111 I
b11111111 L
b11111111 O
b101 "
b101 1
b101 3
1)
#60000
0)
#65000
17
b1 9
b1 =
b1 >
b1 B
b1 F
b1 I
b1 L
b1 O
0:
b10 ;
b10 <
b10 A
b0 8
b0 @
b0 D
b1 %
b1 0
b1 6
b1 C
b0 +
b0 !
b0 -
b0 2
b110 "
b110 1
b110 3
1)
#70000
0)
#75000
b10 9
b10 =
b10 >
b10 B
b10 F
b10 I
b10 L
b10 O
07
b110 ;
b110 <
b110 A
b100 8
b100 @
b100 D
b1000 %
b1000 0
b1000 6
b1000 C
b11 +
b11 !
b11 -
b11 2
b111 "
b111 1
b111 3
1)
#80000
0)
#85000
b110 9
b110 =
b110 >
b110 B
b110 F
b110 I
b110 L
b110 O
0Q
b0 ;
b0 <
b0 A
1N
0'
0#
0&
b111 (
b111 /
b111 5
b111 ?
1$
b100 .
b1100 ,
b110011 !
b110011 -
b110011 2
b1000 "
b1000 1
b1000 3
1)
#90000
0)
#95000
b110 8
b110 @
b110 D
b110 P
1Q
b1100 ;
b1100 <
b1100 A
0N
1'
1#
1&
b0 (
b0 /
b0 5
b0 ?
0$
b0 .
b0 ,
b11 !
b11 -
b11 2
b1001 "
b1001 1
b1001 3
1)
#100000
0)
#105000
b1100 9
b1100 =
b1100 >
b1100 B
b1100 F
b1100 I
b1100 L
b1100 O
b1110 ;
b1110 <
b1110 A
b10 8
b10 @
b10 D
b100 %
b100 0
b100 6
b100 C
b10 +
b10 !
b10 -
b10 2
b1010 "
b1010 1
b1010 3
1)
#110000
0)
#115000
b1110 9
b1110 =
b1110 >
b1110 B
b1110 F
b1110 I
b1110 L
b1110 O
0Q
b110 ;
b110 <
b110 A
b110 8
b110 @
b110 D
0#
0&
b10 (
b10 /
b10 5
b10 ?
b1000 %
b1000 0
b1000 6
b1000 C
b10 .
b11 +
b10 ,
b1011 !
b1011 -
b1011 2
b1011 "
b1011 1
b1011 3
1)
#120000
0)
#125000
b110 9
b110 =
b110 >
b110 B
b110 F
b110 I
b110 L
b110 O
b11111001 ;
b11111001 <
b11111001 A
b0 8
b0 @
b0 D
b101 (
b101 /
b101 5
b101 ?
b1 %
b1 0
b1 6
b1 C
b101 .
b0 +
b101 ,
b10100 !
b10100 -
b10100 2
b1100 "
b1100 1
b1100 3
1)
#130000
0)
#135000
b11111001 9
b11111001 =
b11111001 >
b11111001 B
b11111001 F
b11111001 I
b11111001 L
b11111001 O
b11111111 ;
b11111111 <
b11111111 A
b110 8
b110 @
b110 D
b11 (
b11 /
b11 5
b11 ?
b1000 %
b1000 0
b1000 6
b1000 C
b11 .
b11 +
b11 ,
b1111 !
b1111 -
b1111 2
b1101 "
b1101 1
b1101 3
1)
#140000
0)
#145000
b11111111 9
b11111111 =
b11111111 >
b11111111 B
b11111111 F
b11111111 I
b11111111 L
b11111111 O
b10 ;
b10 <
b10 A
b10 8
b10 @
b10 D
b110 (
b110 /
b110 5
b110 ?
b100 %
b100 0
b100 6
b100 C
b0 .
b10 +
b1000 ,
b100010 !
b100010 -
b100010 2
b1110 "
b1110 1
b1110 3
1)
#150000
0)
#155000
b10 9
b10 =
b10 >
b10 B
b10 F
b10 I
b10 L
b10 O
b11 ;
b11 <
b11 A
b1 8
b1 @
b1 D
b100 (
b100 /
b100 5
b100 ?
b10 %
b10 0
b10 6
b10 C
b100 .
b1 +
b100 ,
b10001 !
b10001 -
b10001 2
b1111 "
b1111 1
b1111 3
1)
#160000
0)
#165000
b11 9
b11 =
b11 >
b11 B
b11 F
b11 I
b11 L
b11 O
b101 ;
b101 <
b101 A
b110 8
b110 @
b110 D
b1000 %
b1000 0
b1000 6
b1000 C
b11 +
b10011 !
b10011 -
b10011 2
b10000 "
b10000 1
b10000 3
1)
#170000
0)
#175000
b101 9
b101 =
b101 >
b101 B
b101 F
b101 I
b101 L
b101 O
b0 ;
b0 <
b0 A
b0 8
b0 @
b0 D
0'
b111 (
b111 /
b111 5
b111 ?
b0 %
b0 0
b0 6
b0 C
b111 .
bx +
b111 ,
b111xx !
b111xx -
b111xx 2
b10001 "
b10001 1
b10001 3
1)
#180000
0)
#185000
b10010 "
b10010 1
b10010 3
1)
